<svg xmlns="http://www.w3.org/2000/svg" xmlns:xlink="http://www.w3.org/1999/xlink" width="344" height="194" viewBox="0 0 344 194">
  <defs>
    <clipPath id="clip-path">
      <rect width="96" height="96" fill="none"/>
    </clipPath>
  </defs>
  <g id="image-service-live-vtr" transform="translate(-140 -2041)">
    <rect id="長方形_1020" data-name="長方形 1020" width="344" height="194" transform="translate(140 2041)" fill="none"/>
    <g id="icon-video-play-large" transform="translate(272 2073)" clip-path="url(#clip-path)">
      <rect id="長方形_1034" data-name="長方形 1034" width="96" height="96" fill="none"/>
      <g id="controls-play" transform="translate(8.002 4)">
        <path id="パス_899" data-name="パス 899" d="M10.589,88.971a9.014,9.014,0,0,1-9-9V10.007A8.994,8.994,0,0,1,14.841,2.075l65.292,34.98a9,9,0,0,1,0,15.868L14.841,87.9a9.071,9.071,0,0,1-4.252,1.068Zm0-81.964A3.025,3.025,0,0,0,7.945,8.591a3.01,3.01,0,0,0-.356,1.416v69.96A3,3,0,0,0,12,82.611l65.3-34.98a3,3,0,0,0,1.224-4.064A2.992,2.992,0,0,0,77.3,42.339L12.009,7.367A2.945,2.945,0,0,0,10.593,7.007Z" transform="translate(-1.589 -1.003)" fill="#008c95"/>
      </g>
    </g>
    <path id="パス_1151" data-name="パス 1151" d="M-64,0a.576.576,0,0,1-.42-.18A.576.576,0,0,1-64.6-.6V-16.2a.564.564,0,0,1,.18-.432A.6.6,0,0,1-64-16.8h3.36a.585.585,0,0,1,.432.168.585.585,0,0,1,.168.432V-3.768h7.2a.6.6,0,0,1,.444.18.6.6,0,0,1,.18.444V-.6a.564.564,0,0,1-.18.432A.626.626,0,0,1-52.836,0Zm14.4,0a.576.576,0,0,1-.42-.18A.576.576,0,0,1-50.2-.6V-16.2a.564.564,0,0,1,.18-.432.6.6,0,0,1,.42-.168h3.432a.585.585,0,0,1,.432.168.585.585,0,0,1,.168.432V-.6a.6.6,0,0,1-.168.42.564.564,0,0,1-.432.18Zm12.1,0a1.016,1.016,0,0,1-.66-.2,1.045,1.045,0,0,1-.348-.516l-4.848-15.36L-43.4-16.3a.482.482,0,0,1,.156-.348.508.508,0,0,1,.372-.156h3.144a.849.849,0,0,1,.588.2.977.977,0,0,1,.3.444L-35.58-5.3l3.288-10.848a.9.9,0,0,1,.3-.456A.882.882,0,0,1-31.4-16.8h3.144a.47.47,0,0,1,.36.156.5.5,0,0,1,.144.348.892.892,0,0,1-.024.216L-32.652-.72a.911.911,0,0,1-.324.516,1.016,1.016,0,0,1-.66.2Zm12.528,0a.576.576,0,0,1-.42-.18.576.576,0,0,1-.18-.42V-16.176a.626.626,0,0,1,.168-.444.564.564,0,0,1,.432-.18h11.328a.6.6,0,0,1,.444.18.6.6,0,0,1,.18.444V-13.8a.564.564,0,0,1-.18.432.626.626,0,0,1-.444.168h-7.584v3.048h7.056a.6.6,0,0,1,.444.18.6.6,0,0,1,.18.444v2.184a.6.6,0,0,1-.18.444.6.6,0,0,1-.444.18h-7.056V-3.6h7.776a.6.6,0,0,1,.444.18.6.6,0,0,1,.18.444V-.6a.564.564,0,0,1-.18.432A.626.626,0,0,1-13.452,0ZM.468.24A7.143,7.143,0,0,1-4.056-1.068,4.336,4.336,0,0,1-5.724-4.68,4.2,4.2,0,0,1-4.9-7.272,7.6,7.6,0,0,1-2.484-9.264a7.122,7.122,0,0,1-1.308-1.8,4.01,4.01,0,0,1-.4-1.728,3.967,3.967,0,0,1,.6-2.124,4.155,4.155,0,0,1,1.8-1.548,6.666,6.666,0,0,1,2.9-.576,5.92,5.92,0,0,1,2.7.576,4.283,4.283,0,0,1,1.74,1.524,3.806,3.806,0,0,1,.6,2.076,3.642,3.642,0,0,1-.84,2.388A8.6,8.6,0,0,1,2.844-8.544L5.58-5.784q.36-.6.648-1.164a9.584,9.584,0,0,0,.576-1.5.461.461,0,0,1,.5-.336H9.876a.44.44,0,0,1,.324.132.44.44,0,0,1,.132.324A5.582,5.582,0,0,1,9.54-6.084,16.43,16.43,0,0,1,7.86-3.528l2.688,2.76a.484.484,0,0,1,.168.336.4.4,0,0,1-.132.312A.464.464,0,0,1,10.26,0H6.828A.844.844,0,0,1,6.2-.24L5.172-1.224A6.508,6.508,0,0,1,3.036-.108,8.862,8.862,0,0,1,.468.24ZM.732-10.8A6.216,6.216,0,0,0,2.1-11.7a1.379,1.379,0,0,0,.48-1.044,1.274,1.274,0,0,0-.42-.984,1.522,1.522,0,0,0-1.068-.384,1.475,1.475,0,0,0-1.032.4,1.294,1.294,0,0,0-.432,1,1.728,1.728,0,0,0,.252.852A5.761,5.761,0,0,0,.732-10.8ZM.468-2.9a3.537,3.537,0,0,0,2.376-.84l-3.1-3.072Q-1.74-6.024-1.74-4.872a1.754,1.754,0,0,0,.66,1.428A2.37,2.37,0,0,0,.468-2.9ZM22.044,0a1.016,1.016,0,0,1-.66-.2,1.045,1.045,0,0,1-.348-.516L16.188-16.08,16.14-16.3a.482.482,0,0,1,.156-.348.508.508,0,0,1,.372-.156h3.144a.849.849,0,0,1,.588.2.977.977,0,0,1,.3.444L23.964-5.3l3.288-10.848a.9.9,0,0,1,.3-.456.882.882,0,0,1,.588-.192h3.144a.47.47,0,0,1,.36.156.5.5,0,0,1,.144.348.892.892,0,0,1-.024.216L26.892-.72a.911.911,0,0,1-.324.516,1.016,1.016,0,0,1-.66.2ZM40.4.24a8.09,8.09,0,0,1-5.376-1.656A6.338,6.338,0,0,1,32.94-6.288q-.024-.672-.024-2.064t.024-2.088a6.349,6.349,0,0,1,2.1-4.884A7.967,7.967,0,0,1,40.4-17.04a7.93,7.93,0,0,1,5.34,1.716,6.349,6.349,0,0,1,2.1,4.884q.048,1.392.048,2.088,0,.72-.048,2.064a6.358,6.358,0,0,1-2.076,4.872A8.041,8.041,0,0,1,40.4.24Zm0-3.6A2.668,2.668,0,0,0,42.4-4.116a3.339,3.339,0,0,0,.792-2.316q.048-1.392.048-1.992t-.048-1.944a3.339,3.339,0,0,0-.792-2.316A2.668,2.668,0,0,0,40.4-13.44a2.7,2.7,0,0,0-2.016.756,3.339,3.339,0,0,0-.792,2.316q-.024.672-.024,1.944,0,1.3.024,1.992a3.339,3.339,0,0,0,.792,2.316A2.7,2.7,0,0,0,40.4-3.36ZM51.2,0a.576.576,0,0,1-.42-.18A.576.576,0,0,1,50.6-.6V-16.176a.626.626,0,0,1,.168-.444.564.564,0,0,1,.432-.18h6.312a8.207,8.207,0,0,1,5.52,1.692,6.329,6.329,0,0,1,2.064,4.86q.024.7.024,1.848T65.1-6.576Q64.86,0,57.636,0Zm6.312-3.6a3.043,3.043,0,0,0,2.232-.72,3.3,3.3,0,0,0,.768-2.3q.048-.7.048-1.8T60.516-10.2a3.116,3.116,0,0,0-.828-2.268A3.233,3.233,0,0,0,57.4-13.2h-2.28v9.6Z" transform="translate(312 2202)" fill="#008c95"/>
  </g>
</svg>
